1|3
1|4
1|6
1|7
1|8
1|14
1|15
1|20
2|2
2|2
2|8
2|9
2|13
2|15
2|15
2|15
2|21
3|8
3|8
3|15
3|23
4|1
4|3
4|6
4|9
4|18
4|24
5|6
5|9
5|15
5|24
6|1
6|4
6|4
6|10
6|21
7|4
7|6
7|9
7|10
7|17
7|18
8|10
8|11
9|3
9|5
9|8
9|10
10|3
10|18
11|4
11|12
11|12
11|14
11|19
12|2
12|3
12|19
13|1
13|2
13|4
13|12
14|9
14|11
14|20
14|20
14|24
15|20
16|2
16|7
16|15
16|16
16|17
16|20
17|6
17|6
17|7
17|8
17|9
17|13
17|16
17|16
18|9
18|11
18|15
18|22
18|24
19|14
19|15
19|16
19|23
20|1
20|1
20|3
20|7
20|15
20|17
20|18
20|19
20|20
